Lab 5
…
Create a data frame containing the most dangerous vehicle make in each state. The number of persons fatally hit in the vehicle make is used to assess the (non-)safety of a make. Make sure to handle the missing values appropriately. (look up variable MAKE)

FatalMakeState <- fatal %>% 
  group_by(STATE, MAKE)
count1 <- count(FatalMakeState)
badMakes <- count1 %>% 
  arrange(STATE, desc(n))
badMakes <- badMakes[complete.cases(badMakes),]
bad <- badMakes %>% 
  group_by(STATE) %>% 
  slice(1)
bad

## # A tibble: 51 x 3
## # Groups:   STATE [51]
##    STATE  MAKE     n
##    <int> <int> <int>
##  1     1    12   138
##  2     2    12     9
##  3     4    20    88
##  4     5    20    88
##  5     6    49   351
##  6     8    12    63
##  7     9    37    28
##  8    10    37    12
##  9    11    37     5
## 10    12    12   237
## # ... with 41 more rows
…
Tally the number of accidents by day of the week (DAY_WEEK), hour of the day (HOUR) and gender (SEX). Visualize the results.

accidentsByDayHourGender <- acc_per %>% 
  group_by(DAY_WEEK, HOUR, SEX) %>% 
  summarize(Number_of_Accidents = sum(DAY_WEEK, HOUR, SEX)) %>% 
  filter((SEX == 1 | SEX == 2) & HOUR != 99) %>% 
  mutate(SEX = ifelse(SEX == 1, 'Male', 'Female'))

## `summarise()` regrouping output by 'DAY_WEEK', 'HOUR' (override with `.groups` argument)

accidentsByDayHourGender <- left_join(accidentsByDayHourGender, dayCodes, by=c('DAY_WEEK' = 'Code'))
accidentsByDayHourGender

## # A tibble: 336 x 5
## # Groups:   DAY_WEEK, HOUR [168]
##    DAY_WEEK  HOUR SEX    Number_of_Accidents Day_Week
##       <dbl> <int> <chr>                <int> <chr>   
##  1        1     0 Male                   976 Sunday  
##  2        1     0 Female                 663 Sunday  
##  3        1     1 Male                  1446 Sunday  
##  4        1     1 Female                 800 Sunday  
##  5        1     2 Male                  2140 Sunday  
##  6        1     2 Female                1190 Sunday  
##  7        1     3 Male                  1880 Sunday  
##  8        1     3 Female                 888 Sunday  
##  9        1     4 Male                  1872 Sunday  
## 10        1     4 Female                 553 Sunday  
## # ... with 326 more rows
…
Summer

summerFatalities <- fatal %>%
  filter(MONTH >= 6 & MONTH <=9)
summerFatalitiesByState <- summerFatalities %>%
  select(ST_CASE, STATE, PER_NO) %>%
  group_by(STATE) %>%
  summarise(Fatalities=sum(PER_NO))

## `summarise()` ungrouping output (override with `.groups` argument)

summerFatalitiesByState

## # A tibble: 51 x 2
##    STATE Fatalities
##    <int>      <int>
##  1     1        386
##  2     2         37
##  3     4        408
##  4     5        242
##  5     6       1528
##  6     8        365
##  7     9        125
##  8    10         59
##  9    11         14
## 10    12       1116
## # ... with 41 more rows
…
Winter

winterFatalities <- fatal %>%
  filter(MONTH <= 3 | MONTH == 12)
winterFatalitiesByState <- winterFatalities %>%
  select(ST_CASE, STATE, PER_NO) %>%
  group_by(STATE) %>%
  summarise(Fatalities=sum(PER_NO))

## `summarise()` ungrouping output (override with `.groups` argument)

winterFatalitiesByState

## # A tibble: 51 x 2
##    STATE Fatalities
##    <int>      <int>
##  1     1        373
##  2     2         32
##  3     4        399
##  4     5        182
##  5     6       1394
##  6     8        219
##  7     9         94
##  8    10         39
##  9    11         14
## 10    12       1352
## # ... with 41 more rows
…
